results/phase-ddr4-phy/phy_if.vcd
$date
	Thu Mar 12 12:12:01 2026
$end
$version
	Icarus Verilog
$end
$timescale
	1ps
$end
$scope module phy_if_tb $end
$var wire 8 ! ddr4_dm_dbi_n [7:0] $end
$var wire 64 " ddr4_dq [63:0] $end
$var wire 1 # ddr4_odt $end
$var wire 1 $ wl_done $end
$var wire 64 % rd_dq [63:0] $end
$var wire 8 & rd_dm [7:0] $end
$var wire 1 ' rd_data_valid $end
$var wire 1 ( dqs_oe $end
$var wire 1 ) dq_oe $end
$var wire 1 * ddr4_we_n $end
$var wire 1 + ddr4_reset_n $end
$var wire 1 , ddr4_ras_n $end
$var wire 8 - ddr4_dqs_p [7:0] $end
$var wire 8 . ddr4_dqs_n [7:0] $end
$var wire 1 / ddr4_cs_n $end
$var wire 1 0 ddr4_cke $end
$var wire 1 1 ddr4_ck_p $end
$var wire 1 2 ddr4_ck_n $end
$var wire 1 3 ddr4_cas_n $end
$var wire 2 4 ddr4_bg [1:0] $end
$var wire 2 5 ddr4_ba [1:0] $end
$var wire 17 6 ddr4_addr [16:0] $end
$var wire 1 7 ddr4_act_n $end
$var parameter 3 8 CMD_ACT $end
$var parameter 3 9 CMD_NOP $end
$var parameter 3 : CMD_PRE $end
$var parameter 3 ; CMD_RD $end
$var parameter 3 < CMD_REF $end
$var parameter 3 = CMD_WR $end
$var parameter 32 > COL_ADDR_W $end
$var parameter 32 ? DM_WIDTH $end
$var parameter 32 @ DQS_WIDTH $end
$var parameter 32 A DQ_WIDTH $end
$var parameter 32 B P_TBURST $end
$var parameter 32 C P_TCL $end
$var parameter 32 D P_TCWL $end
$var parameter 32 E RANKS $end
$var parameter 32 F ROW_ADDR_W $end
$var parameter 32 G WL_CALIB_CYCLES $end
$var reg 1 H clk $end
$var reg 17 I ctrl_addr [16:0] $end
$var reg 2 J ctrl_ba [1:0] $end
$var reg 2 K ctrl_bg [1:0] $end
$var reg 3 L ctrl_cmd [2:0] $end
$var reg 1 M ctrl_cmd_valid $end
$var reg 1 N dram_bus_oe $end
$var reg 8 O dram_dm_drive [7:0] $end
$var reg 64 P dram_dq_drive [63:0] $end
$var reg 1 Q init_done $end
$var reg 1 R rst_n $end
$var reg 8 S test_dm_data [7:0] $end
$var reg 64 T test_dq_data [63:0] $end
$var reg 1 U wl_mode $end
$var reg 1 V wr_data_valid $end
$var reg 8 W wr_dm [7:0] $end
$var reg 64 X wr_dq [63:0] $end
$var integer 32 Y dqs_high [31:0] $end
$var integer 32 Z dqs_low_after [31:0] $end
$var integer 32 [ dqs_low_before [31:0] $end
$var integer 32 \ fail_count [31:0] $end
$var integer 32 ] i [31:0] $end
$var integer 32 ^ pass_count [31:0] $end
$scope module dut $end
$var wire 1 H clk $end
$var wire 17 _ ctrl_addr [16:0] $end
$var wire 2 ` ctrl_ba [1:0] $end
$var wire 2 a ctrl_bg [1:0] $end
$var wire 3 b ctrl_cmd [2:0] $end
$var wire 1 M ctrl_cmd_valid $end
$var wire 8 c ddr4_dm_dbi_n [7:0] $end
$var wire 64 d ddr4_dq [63:0] $end
$var wire 1 # ddr4_odt $end
$var wire 1 + ddr4_reset_n $end
$var wire 1 ) dq_oe $end
$var wire 1 e dqs_drive $end
$var wire 1 ( dqs_oe $end
$var wire 1 Q init_done $end
$var wire 1 R rst_n $end
$var wire 1 U wl_mode $end
$var wire 1 V wr_data_valid $end
$var wire 8 f wr_dm [7:0] $end
$var wire 64 g wr_dq [63:0] $end
$var wire 8 h dqs_p_val [7:0] $end
$var wire 8 i ddr4_dqs_p [7:0] $end
$var wire 8 j ddr4_dqs_n [7:0] $end
$var wire 1 / ddr4_cs_n $end
$var wire 1 0 ddr4_cke $end
$var wire 1 1 ddr4_ck_p $end
$var wire 1 2 ddr4_ck_n $end
$var parameter 3 k CMD_ACT $end
$var parameter 3 l CMD_NOP $end
$var parameter 3 m CMD_PRE $end
$var parameter 3 n CMD_RD $end
$var parameter 3 o CMD_REF $end
$var parameter 3 p CMD_WR $end
$var parameter 32 q COL_ADDR_W $end
$var parameter 32 r DM_WIDTH $end
$var parameter 32 s DQS_WIDTH $end
$var parameter 32 t DQ_WIDTH $end
$var parameter 32 u P_TBURST $end
$var parameter 32 v P_TCL $end
$var parameter 32 w P_TCWL $end
$var parameter 32 x RANKS $end
$var parameter 32 y ROW_ADDR_W $end
$var parameter 32 z WL_CALIB_CYCLES $end
$var parameter 3 { WR_CWL $end
$var parameter 3 | WR_DATA $end
$var parameter 3 } WR_IDLE $end
$var parameter 3 ~ WR_POST $end
$var parameter 3 !" WR_PRE $end
$var reg 1 7 ddr4_act_n $end
$var reg 17 "" ddr4_addr [16:0] $end
$var reg 2 #" ddr4_ba [1:0] $end
$var reg 2 $" ddr4_bg [1:0] $end
$var reg 1 3 ddr4_cas_n $end
$var reg 1 , ddr4_ras_n $end
$var reg 1 * ddr4_we_n $end
$var reg 8 %" dm_out_r [7:0] $end
$var reg 1 &" dq_oe_r $end
$var reg 64 '" dq_out_r [63:0] $end
$var reg 1 (" dqs_oe_r $end
$var reg 8 )" dqs_p_out_r [7:0] $end
$var reg 1 *" rd_armed $end
$var reg 8 +" rd_cnt [7:0] $end
$var reg 1 ' rd_data_valid $end
$var reg 8 ," rd_dm [7:0] $end
$var reg 64 -" rd_dq [63:0] $end
$var reg 8 ." wl_cnt [7:0] $end
$var reg 1 $ wl_done $end
$var reg 1 /" wl_dqs_r $end
$var reg 8 0" wr_buf_dm [7:0] $end
$var reg 64 1" wr_buf_dq [63:0] $end
$var reg 8 2" wr_cnt [7:0] $end
$var reg 3 3" wr_state [2:0] $end
$upscope $end
$scope task chk $end
$var reg 1 4" cond $end
$var reg 256 5" msg [255:0] $end
$var reg 32 6" test_id [31:0] $end
$upscope $end
$scope task clk_cycle $end
$upscope $end
$scope task send_cmd $end
$var reg 17 7" addr [16:0] $end
$var reg 2 8" ba [1:0] $end
$var reg 2 9" bg [1:0] $end
$var reg 3 :" c [2:0] $end
$upscope $end
$upscope $end
$enddefinitions $end
$comment Show the parameter values. $end
$dumpall
b10 !"
b100 ~
b0 }
b11 |
b1 {
b1000 z
b10001 y
b1 x
b100 w
b101 v
b100 u
b1000000 t
b1000 s
b1000 r
b1010 q
b11 p
b101 o
b10 n
b100 m
b0 l
b1 k
b1000 G
b10001 F
b1 E
b100 D
b101 C
b100 B
b1000000 A
b1000 @
b1000 ?
b1010 >
b11 =
b101 <
b10 ;
b100 :
b0 9
b1 8
$end
#0
$dumpvars
bx :"
bx 9"
bx 8"
bx 7"
bx 6"
bx 5"
x4"
b0 3"
b0 2"
b0 1"
b0 0"
0/"
b0 ."
b0 -"
b0 ,"
b0 +"
0*"
b0 )"
0("
b0 '"
0&"
b0 %"
b0 $"
b0 #"
b0 ""
bz j
bz i
b0 h
b0 g
b0 f
0e
bz d
bz c
b0 b
b0 a
b0 `
b0 _
b0 ^
bx ]
b0 \
bx [
bx Z
bx Y
b0 X
b0 W
0V
0U
bx T
bx S
0R
0Q
b0 P
b0 O
0N
0M
b0 L
b0 K
b0 J
b0 I
0H
17
b0 6
b0 5
b0 4
13
12
01
00
1/
bz .
bz -
1,
0+
1*
0)
0(
0'
b0 &
b0 %
0$
0#
bz "
bz !
$end
#5000
02
11
1H
#10000
12
01
0H
#15000
02
11
1H
#20000
12
01
0H
#25000
02
11
1H
#30000
12
01
0H
#35000
02
11
1H
#36000
0/
10
1Q
1+
1R
b1001 ^
b111001001100101011100110110010101110100001110100010000001000100010100010101001101011111011100000011110101001000011010010010110101011010 5"
b1 6"
14"
#40000
12
01
0H
#45000
02
11
1H
#46000
b11100101011111110 7"
b10 8"
b1 9"
b1 :"
#50000
12
1M
b11100101011111110 I
b11100101011111110 _
b10 J
b10 `
b1 K
b1 a
b1 L
b1 b
01
0H
#55000
07
b11100101011111110 6
b11100101011111110 ""
b1 4
b1 $"
b10 5
b10 #"
02
11
1H
#56000
b100000000 7"
b0 8"
b0 9"
b10 :"
b1100 ^
b10000010100001101010100001110100010000001100010011001110010000001101100011000010111010001100011011010000110010101100100 5"
b10 6"
0M
#60000
12
1M
b100000000 I
b100000000 _
b0 J
b0 `
b0 K
b0 a
b10 L
b10 b
01
0H
#65000
1*"
b100 +"
03
17
b100000000 6
b100000000 ""
b0 4
b0 $"
b0 5
b0 #"
02
11
1H
#66000
b1000000000 7"
b11 :"
b1111 ^
b1010010010001000011101000100000011101110110010101011111011011100011110100110001 5"
0M
#70000
12
1M
b1000000000 I
b1000000000 _
b11 L
b11 b
01
0H
#75000
0*
b1000000000 6
b1000000000 ""
b1 3"
b10 2"
b11 +"
02
11
1H
#76000
b0 7"
b100 :"
b10010 ^
b1010111010100100011101000100000011101110110010101011111011011100011110100110000 5"
0M
#80000
12
1M
b0 I
b0 _
b100 L
b100 b
01
0H
#85000
b10 +"
b1 2"
13
0,
b0 6
b0 ""
02
11
1H
#86000
b101 :"
b10110 ^
b101000001010010010001010011101000100000011101110110010101011111011011100011110100110000 5"
0M
#90000
12
1M
b101 L
b101 b
01
0H
#95000
1*
03
b0 2"
b1 +"
02
11
1H
#96000
b11010 ^
b101001001000101010001100011101000100000011101110110010101011111011011100011110100110001 5"
0M
#100000
12
b0 L
b0 b
01
0H
#105000
b0 +"
b10 3"
13
1,
02
11
1H
#106000
b11110 ^
b100111001001111010100000011101000100000011101110110010101011111011011100011110100110001 5"
#110000
12
01
0H
#115000
b0 -
b0 i
b11111111 .
b11111111 j
1e
1(
b0 "
b0 d
b0 !
b0 c
b11 3"
b11 2"
1("
1)
1&"
0*"
1'
bz &
bz ,"
bz %
bz -"
02
11
1H
#120000
12
01
0H
#125000
b0 .
b0 j
b11111111 -
b11111111 i
b11111111 h
0'
b10 2"
b11111111 )"
02
11
1H
#130000
12
01
0H
#135000
b11111111 .
b11111111 j
b0 -
b0 i
b0 h
b1 2"
b0 )"
02
11
1H
#140000
12
01
0H
#145000
b0 .
b0 j
b11111111 -
b11111111 i
b11111111 h
b0 2"
b11111111 )"
02
11
1H
#150000
12
01
0H
#155000
b11111111 .
b11111111 j
b0 -
b0 i
b0 h
b100 3"
b0 )"
02
11
1H
#160000
12
01
0H
#165000
bz -
bz i
bz .
bz j
0e
0(
bz "
bz d
bz !
bz c
b0 3"
0("
0)
0&"
02
11
1H
#170000
12
01
0H
#175000
02
11
1H
#180000
12
01
0H
#185000
02
11
1H
#190000
12
01
0H
#195000
02
11
1H
#200000
12
01
0H
#205000
02
11
1H
#210000
12
01
0H
#215000
02
11
1H
#220000
12
01
0H
#225000
02
11
1H
#226000
b10100101 S
b1101111010101101101111101110111111001010111111100001001000110100 T
#230000
12
1V
b10100101 W
b10100101 f
b1101111010101101101111101110111111001010111111100001001000110100 X
b1101111010101101101111101110111111001010111111100001001000110100 g
1M
b10000000000 I
b10000000000 _
b1 J
b1 `
b11 L
b11 b
01
0H
#235000
0*
03
b10000000000 6
b10000000000 ""
b1 5
b1 #"
b10100101 0"
b1101111010101101101111101110111111001010111111100001001000110100 1"
b1 3"
b10 2"
02
11
1H
#236000
b100000 ^
b110010001110001011100110101111101101111011001010010000001110011011101000110100101101100011011000010000000110000001000000010100001000011010101110100110000100000011011100110111101110100001000000110010101111000011100000110100101110010011001010110010000101001 5"
b11 6"
0V
0M
#240000
12
b0 L
b0 b
01
0H
#245000
b1 2"
1*
13
02
11
1H
#250000
12
01
0H
#255000
b0 2"
02
11
1H
#260000
12
01
0H
#265000
b10 3"
02
11
1H
#270000
12
01
0H
#275000
b0 -
b0 i
b11111111 .
b11111111 j
1e
1(
b1101111010101101101111101110111111001010111111100001001000110100 "
b1101111010101101101111101110111111001010111111100001001000110100 d
b10100101 !
b10100101 c
b11 3"
b11 2"
b10100101 %"
b1101111010101101101111101110111111001010111111100001001000110100 '"
1("
1)
1&"
02
11
1H
#276000
b1 [
b100 6"
b100101 ^
b110000101101101011000100110110001100101001110100010000001000100010100010101001101011111011011100101101100110000010111010011110100110001001000000010100001100100011010010110011001100110011001010111001001100101011011100111010001101001011000010110110000101001 5"
#280000
12
01
0H
#285000
b0 .
b0 j
b11111111 -
b11111111 i
b11111111 h
b10 2"
b11111111 )"
02
11
1H
#286000
b1 Y
b100110 ^
b111010000100000011000110111100100110000001110100010000001000100010100010101001101011111011100000101101100110000010111010011110100110001001000000010100001100110011010010111001001110011011101000010000001110100011011110110011101100111011011000110010100101001 5"
b101 6"
#290000
12
01
0H
#295000
b11111111 .
b11111111 j
b0 -
b0 i
b0 h
b1 2"
b0 )"
02
11
1H
#296000
b100111 ^
b11000100111010101110010011100110111010000100000011000110111100100110001001110100010000001000100010100010101001101011111011100000101101100110000010111010011110100110000 5"
#300000
12
01
0H
#305000
b0 .
b0 j
b11111111 -
b11111111 i
b11111111 h
b0 2"
b11111111 )"
02
11
1H
#306000
b101000 ^
b11000100111010101110010011100110111010000100000011000110111100100110010001110100010000001000100010100010101001101011111011100000101101100110000010111010011110100110001 5"
#310000
12
01
0H
#315000
b11111111 .
b11111111 j
b0 -
b0 i
b0 h
b100 3"
b0 )"
02
11
1H
#316000
b1 Z
b101011 ^
b111000001110010011001010010100100100000001011010010000001110100011011110110011101100111011011000110010100101000011000100111010101110010011100110111010000101001001000000010110100100000011011000110111101110111001010000111000001101111011100110111010000101001 5"
b110 6"
#320000
12
01
0H
#325000
bz -
bz i
bz .
bz j
0e
0(
bz "
bz d
bz !
bz c
b0 3"
0("
0)
0&"
02
11
1H
#326000
b10000000 7"
b10 :"
b101111 ^
b1000100010100010101001101011111011100000010000001001000011010010010110101011010001000000110000101100110011101000110010101110010001000000111011101110010011010010111010001100101 5"
#330000
12
1M
b10000000 I
b10000000 _
b0 J
b0 `
b10 L
b10 b
01
0H
#335000
03
b10000000 6
b10000000 ""
b0 5
b0 #"
1*"
b100 +"
02
11
1H
#336000
0M
#340000
12
b0 L
b0 b
01
0H
#345000
b11 +"
13
02
11
1H
#346000
b110000 ^
b100010000100000011010010110111000100000011100000111001001101111011001110111001001100101011100110111001100111010001000000110010001110001010111110110111101100101001111010011000000100000001010000100010001010001001000000100100001101001001011010101101000101001 5"
b111 6"
#350000
12
01
0H
#355000
b10 +"
02
11
1H
#356000
b110001 ^
#360000
12
01
0H
#365000
b1 +"
02
11
1H
#366000
b110010 ^
#370000
12
01
0H
#375000
b0 +"
02
11
1H
#376000
b1111111011101101111110101100111011011110101011011011111011101111 "
b1111111011101101111110101100111011011110101011011011111011101111 d
b111100 !
b111100 c
1N
b111100 O
b1111111011101101111110101100111011011110101011011011111011101111 P
b111100 S
b1111111011101101111110101100111011011110101011011011111011101111 T
b110011 ^
#380000
12
01
0H
#385000
0*"
1'
b111100 &
b111100 ,"
b1111111011101101111110101100111011011110101011011011111011101111 %
b1111111011101101111110101100111011011110101011011011111011101111 -"
02
11
1H
#386000
bz "
bz d
bz !
bz c
0N
b110110 ^
b110010000100000011000110110000101110000011101000111010101110010011001010011101000100000011100100110010001011111011001000110110100100000011011010110000101110100011000110110100001100101011100110010000001000100010100100100000101001101001000000100010001001101 5"
b1000 6"
#390000
12
01
0H
#395000
0'
02
11
1H
#396000
b0 -
b0 i
b11111111 .
b11111111 j
1(
1e
1U
b110111 ^
b111010001100001010111110111011001100001011011000110100101100100001000000110010001100101001011010110000101110011011100110110010101110010011101000110010101100100001000000110000101100110011101000110010101110010001000000111000001110101011011000111001101100101 5"
#400000
12
01
0H
#405000
b0 .
b0 j
b11111111 -
b11111111 i
b11111111 h
b1 ."
1/"
02
11
1H
#406000
b0 ]
b111001 ^
b1010111010011000010000001101101011011110110010001100101001110100010000001110111011011000101111101100100011011110110111001100101001111010011000000100000011010010110111001101001011101000110100101100001011011000110110001111001 5"
b1001 6"
#410000
12
01
0H
#415000
b11111111 .
b11111111 j
b0 -
b0 i
b0 h
b10 ."
0/"
02
11
1H
#416000
b1 ]
#420000
12
01
0H
#425000
b0 .
b0 j
b11111111 -
b11111111 i
b11111111 h
b11 ."
1/"
02
11
1H
#426000
b10 ]
#430000
12
01
0H
#435000
b11111111 .
b11111111 j
b0 -
b0 i
b0 h
b100 ."
0/"
02
11
1H
#436000
b11 ]
#440000
12
01
0H
#445000
b0 .
b0 j
b11111111 -
b11111111 i
b11111111 h
b101 ."
1/"
02
11
1H
#446000
b100 ]
#450000
12
01
0H
#455000
b11111111 .
b11111111 j
b0 -
b0 i
b0 h
b110 ."
0/"
02
11
1H
#456000
b101 ]
#460000
12
01
0H
#465000
b0 .
b0 j
b11111111 -
b11111111 i
b11111111 h
b111 ."
1/"
02
11
1H
#466000
b110 ]
#470000
12
01
0H
#475000
0e
0(
bz .
bz j
bz -
bz i
b0 h
1$
0/"
02
11
1H
#476000
0U
b111010 ^
b110111101100100011001010011101000100000011101110110110001011111011001000110111101101110011001010011110100110001001000000110000101100110011101000110010101110010001000000110001101100001011011000110100101100010011100100110000101110100011010010110111101101110 5"
b111 ]
#480000
12
01
0H
#485000
b0 ."
0$
02
11
1H
#486000
b0 6
b0 ""
b0 0"
b0 1"
b0 %"
b0 '"
b0 &
b0 ,"
b0 %
b0 -"
1/
00
0Q
0+
0R
b111100 ^
b10101110100110000100000011011010110111101100100011001010010000001101111011001100110011000111010001000000110010001110001011100110101111101101111011001010011110100110000 5"
#490000
12
01
0H
#495000
02
11
1H
#496000
1+
1R
b111111 ^
b110010101110011011001010111010000111010001000000110010001100100011100100011010001011111011100100110010101110011011001010111010001011111011011100010000001100110011011110110110001101100011011110111011101110011001000000111001001110011011101000101111101101110 5"
b1010 6"
#500000
12
01
0H
#505000
b10000000 6
b10000000 ""
02
11
1H
#506000
0/
10
1Q
b1000000 ^
b11110100110001001000000110111001101111001011010110100101101110011010010111010000111010001000000110001101110011010111110110111000111101001100010010000000101000011010010110111001101001011101000101111101100100011011110110111001100101001111010011000000101001 5"
#510000
12
01
0H
#515000
02
11
1H
#516000
b1000010 ^
b11010010110111001101001011101000101111101100100011011110110111001100101001111010011000100111010001000000110001101101011011001010011110100110001 5"
