results/phase-ddr4-axi/axi4_slave.vcd
$date
	Thu Mar 12 11:47:43 2026
$end
$version
	Icarus Verilog
$end
$timescale
	1ps
$end
$scope module axi4_slave_tb $end
$var wire 1 ! wr_valid $end
$var wire 4 " wr_strb [3:0] $end
$var wire 4 # wr_id [3:0] $end
$var wire 1 $ wr_data_valid $end
$var wire 32 % wr_data [31:0] $end
$var wire 16 & wr_addr [15:0] $end
$var wire 1 ' s_axi_wready $end
$var wire 1 ( s_axi_rvalid $end
$var wire 2 ) s_axi_rresp [1:0] $end
$var wire 1 * s_axi_rlast $end
$var wire 4 + s_axi_rid [3:0] $end
$var wire 32 , s_axi_rdata [31:0] $end
$var wire 1 - s_axi_bvalid $end
$var wire 2 . s_axi_bresp [1:0] $end
$var wire 4 / s_axi_bid [3:0] $end
$var wire 1 0 s_axi_awready $end
$var wire 1 1 s_axi_arready $end
$var wire 1 2 rd_valid $end
$var wire 4 3 rd_id [3:0] $end
$var wire 1 4 rd_data_ready $end
$var wire 16 5 rd_addr [15:0] $end
$var parameter 32 6 AXI_ADDR_W $end
$var parameter 32 7 AXI_DATA_W $end
$var parameter 32 8 AXI_ID_W $end
$var parameter 32 9 STRB_W $end
$var reg 1 : clk $end
$var reg 32 ; rd_data [31:0] $end
$var reg 1 < rd_data_valid $end
$var reg 1 = rd_ecc_double_err $end
$var reg 1 > rd_ecc_single_err $end
$var reg 1 ? rd_ready $end
$var reg 1 @ rst_n $end
$var reg 16 A s_axi_araddr [15:0] $end
$var reg 2 B s_axi_arburst [1:0] $end
$var reg 4 C s_axi_arid [3:0] $end
$var reg 8 D s_axi_arlen [7:0] $end
$var reg 3 E s_axi_arsize [2:0] $end
$var reg 1 F s_axi_arvalid $end
$var reg 16 G s_axi_awaddr [15:0] $end
$var reg 2 H s_axi_awburst [1:0] $end
$var reg 4 I s_axi_awid [3:0] $end
$var reg 8 J s_axi_awlen [7:0] $end
$var reg 3 K s_axi_awsize [2:0] $end
$var reg 1 L s_axi_awvalid $end
$var reg 1 M s_axi_bready $end
$var reg 1 N s_axi_rready $end
$var reg 32 O s_axi_wdata [31:0] $end
$var reg 1 P s_axi_wlast $end
$var reg 4 Q s_axi_wstrb [3:0] $end
$var reg 1 R s_axi_wvalid $end
$var reg 1 S wr_ready $end
$var integer 32 T fail_count [31:0] $end
$var integer 32 U pass_count [31:0] $end
$scope module dut $end
$var wire 1 : clk $end
$var wire 32 V rd_data [31:0] $end
$var wire 1 < rd_data_valid $end
$var wire 1 = rd_ecc_double_err $end
$var wire 1 > rd_ecc_single_err $end
$var wire 1 ? rd_ready $end
$var wire 1 @ rst_n $end
$var wire 16 W s_axi_araddr [15:0] $end
$var wire 2 X s_axi_arburst [1:0] $end
$var wire 4 Y s_axi_arid [3:0] $end
$var wire 8 Z s_axi_arlen [7:0] $end
$var wire 3 [ s_axi_arsize [2:0] $end
$var wire 1 F s_axi_arvalid $end
$var wire 16 \ s_axi_awaddr [15:0] $end
$var wire 2 ] s_axi_awburst [1:0] $end
$var wire 4 ^ s_axi_awid [3:0] $end
$var wire 8 _ s_axi_awlen [7:0] $end
$var wire 3 ` s_axi_awsize [2:0] $end
$var wire 1 L s_axi_awvalid $end
$var wire 1 M s_axi_bready $end
$var wire 1 N s_axi_rready $end
$var wire 32 a s_axi_wdata [31:0] $end
$var wire 1 P s_axi_wlast $end
$var wire 4 b s_axi_wstrb [3:0] $end
$var wire 1 R s_axi_wvalid $end
$var wire 1 S wr_ready $end
$var wire 1 ' s_axi_wready $end
$var wire 1 0 s_axi_awready $end
$var wire 1 1 s_axi_arready $end
$var parameter 32 c AXI_ADDR_W $end
$var parameter 32 d AXI_DATA_W $end
$var parameter 32 e AXI_ID_W $end
$var parameter 2 f RESP_OKAY $end
$var parameter 2 g RESP_SLVERR $end
$var parameter 2 h RS_ARB $end
$var parameter 2 i RS_DATA $end
$var parameter 2 j RS_IDLE $end
$var parameter 2 k RS_RESP $end
$var parameter 2 l WS_ARB $end
$var parameter 2 m WS_IDLE $end
$var parameter 2 n WS_RESP $end
$var parameter 2 o WS_WAIT_W $end
$var reg 16 p aw_addr_buf [15:0] $end
$var reg 4 q aw_id_buf [3:0] $end
$var reg 16 r rd_addr [15:0] $end
$var reg 1 4 rd_data_ready $end
$var reg 4 s rd_id [3:0] $end
$var reg 2 t rd_state [1:0] $end
$var reg 1 2 rd_valid $end
$var reg 4 u s_axi_bid [3:0] $end
$var reg 2 v s_axi_bresp [1:0] $end
$var reg 1 - s_axi_bvalid $end
$var reg 32 w s_axi_rdata [31:0] $end
$var reg 4 x s_axi_rid [3:0] $end
$var reg 1 * s_axi_rlast $end
$var reg 2 y s_axi_rresp [1:0] $end
$var reg 1 ( s_axi_rvalid $end
$var reg 16 z wr_addr [15:0] $end
$var reg 32 { wr_data [31:0] $end
$var reg 1 $ wr_data_valid $end
$var reg 4 | wr_id [3:0] $end
$var reg 2 } wr_state [1:0] $end
$var reg 4 ~ wr_strb [3:0] $end
$var reg 1 ! wr_valid $end
$upscope $end
$scope task arb_accept_rd $end
$upscope $end
$scope task arb_accept_wr $end
$upscope $end
$scope task chk $end
$var reg 1 !" cond $end
$var reg 240 "" msg [239:0] $end
$var reg 32 #" tid [31:0] $end
$upscope $end
$scope task clk_cycle $end
$upscope $end
$scope task drive_ar $end
$var reg 16 $" addr [15:0] $end
$var reg 4 %" id [3:0] $end
$upscope $end
$scope task drive_aw $end
$var reg 16 &" addr [15:0] $end
$var reg 4 '" id [3:0] $end
$upscope $end
$scope task drive_w $end
$var reg 32 (" data [31:0] $end
$var reg 4 )" strb [3:0] $end
$upscope $end
$scope task return_rd_data $end
$var reg 32 *" data [31:0] $end
$upscope $end
$scope task return_rd_data_dbe $end
$var reg 32 +" data [31:0] $end
$upscope $end
$upscope $end
$enddefinitions $end
$comment Show the parameter values. $end
$dumpall
b1 o
b11 n
b0 m
b10 l
b11 k
b0 j
b10 i
b1 h
b10 g
b0 f
b100 e
b100000 d
b10000 c
b100 9
b100 8
b100000 7
b10000 6
$end
#0
$dumpvars
bx +"
bx *"
bx )"
bx ("
bx '"
bx &"
bx %"
bx $"
bx #"
bx ""
x!"
b0 ~
b0 }
b0 |
b0 {
b0 z
b0 y
b0 x
b0 w
b0 v
b0 u
b0 t
b0 s
b0 r
b0 q
b0 p
b1111 b
b0 a
b10 `
b0 _
b0 ^
b1 ]
b0 \
b10 [
b0 Z
b0 Y
b1 X
b0 W
b0 V
b0 U
b0 T
0S
0R
b1111 Q
0P
b0 O
0N
0M
0L
b10 K
b0 J
b0 I
b1 H
b0 G
0F
b10 E
b0 D
b0 C
b1 B
b0 A
0@
0?
0>
0=
0<
b0 ;
0:
b0 5
04
b0 3
02
11
10
b0 /
b0 .
0-
b0 ,
b0 +
0*
b0 )
0(
0'
b0 &
b0 %
0$
b0 #
b0 "
0!
$end
#5000
1:
#10000
0:
#15000
1:
#20000
0:
#25000
1:
#30000
0:
#35000
1:
#36000
b100 U
b111001001100101011100110110010101110100001110100010000001110010011001000101111101110110011000010110110001101001011001000011110100110000 ""
b1 #"
1!"
#40000
0:
#45000
1:
#46000
1@
#50000
0:
#55000
1:
#56000
b1000000000000 &"
b1 '"
b111 U
b11001010111001101100101011101000011101000100000011101110111001001100101011000010110010001111001001111010011000000100000001010000110111001101111001000000100000101010111001000000111000001100101011011100110010001101001011011100110011100101001 ""
#60000
1L
b1000000000000 G
b1000000000000 \
b1 I
b1 ^
0:
#65000
00
1'
b1 }
b1000000000000 p
b1 q
1:
#66000
b1111 )"
b11011110101011011011111011101111 ("
b1001 U
b1000000110000101110111011100100110010101100001011001000111100100111101001100000010000001110111011010000110100101101100011001010010000001110111011000010110100101110100011010010110111001100111001000000110011001101111011100100010000001010111 ""
b10 #"
0L
#70000
1R
1P
b11011110101011011011111011101111 O
b11011110101011011011111011101111 a
0:
#75000
0'
b10 }
b1111 "
b1111 ~
b11011110101011011011111011101111 %
b11011110101011011011111011101111 {
b1 #
b1 |
b1000000000000 &
b1000000000000 z
1!
1:
#76000
b1011 U
b1110111011100100110100101110100011001010011101000100000011101110111001001011111011000010110010001100100011100100010000001100011011011110111001001110010011001010110001101110100 ""
0P
0R
#80000
1S
0:
#85000
b11 }
b1 /
b1 u
1-
1$
0!
1:
#86000
b1111 U
b1110111011100100110100101110100011001010011101000100000011101110111001001011111011001000110000101110100011000010010000001100011011011110111001001110010011001010110001101110100 ""
0S
#90000
1M
0:
#95000
10
b0 }
0-
0$
1:
#96000
b10001 U
b111011101110010011010010111010001100101001110100010000001100001011101110111001001100101011000010110010001111001001111010011000100100000011000100110000101100011011010110010000001101001011011100010000001001001010001000100110001000101 ""
0M
#100000
0:
#105000
1:
#106000
b10000000000000 $"
b10 %"
#110000
1F
b10000000000000 A
b10000000000000 W
b10 C
b10 Y
0:
#115000
01
b1 t
12
b10 3
b10 s
b10000000000000 5
b10000000000000 r
1:
#116000
b10011 U
b11100100110010101100001011001000011101000100000011100100110010001011111011000010110010001100100011100100010000001100011011011110111001001110010011001010110001101110100 ""
b11 #"
0F
#120000
1?
0:
#125000
b10 t
14
02
1:
#126000
b11001010111111101111000000001101 *"
b10101 U
b1110010011001010110000101100100001110100010000001110010011001000101111101110110011000010110110001101001011001000010000001100100011001010110000101110011011100110110010101110010011101000110010101100100 ""
0?
#130000
1<
b11001010111111101111000000001101 ;
b11001010111111101111000000001101 V
0:
#135000
b11 t
1(
1*
b11001010111111101111000000001101 ,
b11001010111111101111000000001101 w
b10 +
b10 x
04
1:
#136000
b11001 U
b1110010011001010110000101100100001110100010000001110010011011000110000101110011011101000011110100110001 ""
0<
#140000
1N
0:
#145000
11
b0 t
0*
0(
1:
#146000
b11011 U
b1110010011001010110000101100100001110100010000001100001011100100111001001100101011000010110010001111001001111010011000100100000011000100110000101100011011010110010000001101001011011100010000001001001010001000100110001000101 ""
0N
#150000
0:
#155000
1:
#156000
b11000000000000 &"
b1010 '"
#160000
1L
b11000000000000 G
b11000000000000 \
b1010 I
b1010 ^
0:
#165000
00
1'
b1 }
b11000000000000 p
b1010 q
1:
#166000
b10101010101010101011101110111011 ("
0L
#170000
1R
1P
b10101010101010101011101110111011 O
b10101010101010101011101110111011 a
0:
#175000
0'
b10 }
b10101010101010101011101110111011 %
b10101010101010101011101110111011 {
b1010 #
b1010 |
b11000000000000 &
b11000000000000 z
1!
1:
#176000
0P
0R
#180000
1S
0:
#185000
b11 }
b1010 /
b1010 u
1-
1$
0!
1:
#186000
b11101 U
b11101110111001001101001011101000110010100101101011010010110010000111010001000000110001001110110011000010110110001101001011001000011110100110001 ""
b100 #"
0S
#190000
1M
0:
#195000
10
b0 }
0-
0$
1:
#196000
0M
#200000
0:
#205000
1:
#206000
b100000000000000 $"
b1011 %"
#210000
1F
b100000000000000 A
b100000000000000 W
b1011 C
b1011 Y
0:
#215000
01
b1 t
12
b1011 3
b1011 s
b100000000000000 5
b100000000000000 r
1:
#216000
0F
#220000
1?
0:
#225000
b10 t
14
02
1:
#226000
b10010001101000101011001111000 *"
0?
#230000
1<
b10010001101000101011001111000 ;
b10010001101000101011001111000 V
0:
#235000
b11 t
1(
1*
b10010001101000101011001111000 ,
b10010001101000101011001111000 w
b1011 +
b1011 x
04
1:
#236000
b11111 U
b111001001100101011000010110010000101101011010010110010000111010001000000111001001110110011000010110110001101001011001000011110100110001 ""
b101 #"
0<
#240000
1N
0:
#245000
11
b0 t
0*
0(
1:
#246000
0N
#250000
0:
#255000
1:
#256000
b101000000000000 &"
b11 '"
#260000
1L
b101000000000000 G
b101000000000000 \
b11 I
b11 ^
0:
#265000
00
1'
b1 }
b101000000000000 p
b11 q
1:
#266000
b10111110111011111100101011111110 ("
0L
#270000
1R
1P
b10111110111011111100101011111110 O
b10111110111011111100101011111110 a
0:
#275000
0'
b10 }
b10111110111011111100101011111110 %
b10111110111011111100101011111110 {
b11 #
b11 |
b101000000000000 &
b101000000000000 z
1!
1:
#276000
0P
0R
#280000
1S
0:
#285000
b11 }
b11 /
b11 u
1-
1$
0!
1:
#286000
b100000 U
b11000100010110101100010011000010110001101101011011100000111001001100101011100110111001101110101011100100110010100111010001000000110001001110110011000010110110001101001011001000011110100110001 ""
b110 #"
0S
#290000
0:
#295000
0$
1:
#296000
b100001 U
b11000100010110101100010011000010110001101101011011100000111001001100101011100110111001101110101011100100110010100111010001000000110001001110110011000010110110001101001011001000010000001101000011001010110110001100100 ""
#300000
0:
#305000
1:
#306000
b100010 U
#310000
0:
#315000
1:
#316000
b100011 U
#320000
0:
#325000
1:
#326000
b100100 U
#330000
1M
0:
#335000
10
b0 }
0-
1:
#336000
b100101 U
b11100100110010101110011011100110111010101110010011001010011101000100000011000100111011001100001011011000110100101100100001111010011000000100000011000010110011001110100011001010111001000100000011000010110001101100011011001010111000001110100 ""
0M
#340000
0:
#345000
1:
#346000
b110000000000000 $"
b100 %"
#350000
1F
b110000000000000 A
b110000000000000 W
b100 C
b100 Y
0:
#355000
01
b1 t
12
b100 3
b100 s
b110000000000000 5
b110000000000000 r
1:
#356000
0F
#360000
1?
0:
#365000
b10 t
14
02
1:
#366000
b1011010010110100101101001011010 *"
0?
#370000
1<
b1011010010110100101101001011010 ;
b1011010010110100101101001011010 V
0:
#375000
b11 t
1(
1*
b1011010010110100101101001011010 ,
b1011010010110100101101001011010 w
b100 +
b100 x
04
1:
#376000
b100110 U
b11100100010110101100010011000010110001101101011011100000111001001100101011100110111001101110101011100100110010100111010001000000111001001110110011000010110110001101001011001000011110100110001 ""
b111 #"
0<
#380000
0:
#385000
1:
#386000
b100111 U
b11100100010110101100010011000010110001101101011011100000111001001100101011100110111001101110101011100100110010100111010001000000111001001110110011000010110110001101001011001000010000001101000011001010110110001100100 ""
#390000
0:
#395000
1:
#396000
b101000 U
#400000
0:
#405000
1:
#406000
b101001 U
#410000
0:
#415000
1:
#416000
b101010 U
#420000
1N
0:
#425000
11
b0 t
0*
0(
1:
#426000
b101011 U
b11100100110010101110011011100110111010101110010011001010011101000100000011100100111011001100001011011000110100101100100001111010011000000100000011000010110011001110100011001010111001000100000011000010110001101100011011001010111000001110100 ""
0N
#430000
0:
#435000
1:
#436000
b111000000000000 $"
b101 %"
#440000
1F
b111000000000000 A
b111000000000000 W
b101 C
b101 Y
0:
#445000
01
b1 t
12
b101 3
b101 s
b111000000000000 5
b111000000000000 r
1:
#446000
0F
#450000
1?
0:
#455000
b10 t
14
02
1:
#456000
b11011110101011011100000011011110 +"
0?
#460000
1<
1=
b11011110101011011100000011011110 ;
b11011110101011011100000011011110 V
0:
#465000
b11 t
1(
1*
b10 )
b10 y
b11011110101011011100000011011110 ,
b11011110101011011100000011011110 w
b101 +
b101 x
04
1:
#466000
b101110 U
b1110011011011000111011001100101011100100111001000111010001000000111001001101001011001000010000001100011011011110111001001110010011001010110001101110100 ""
b1000 #"
0=
0<
#470000
1N
0:
#475000
11
b0 t
0*
0(
1:
#476000
0N
