results/phase-ddr4-sched/cmd_scheduler.vcd
$date
	Thu Mar 12 11:32:41 2026
$end
$version
	Icarus Verilog
$end
$timescale
	1ps
$end
$scope module cmd_scheduler_tb $end
$var wire 3 ! tc_cmd [2:0] $end
$var wire 2 " tc_bank_group [1:0] $end
$var wire 2 # tc_bank [1:0] $end
$var wire 1 $ dram_valid $end
$var wire 11 % dram_row_addr [10:0] $end
$var wire 10 & dram_col_addr [9:0] $end
$var wire 3 ' dram_cmd [2:0] $end
$var wire 2 ( dram_bank_group [1:0] $end
$var wire 2 ) dram_bank [1:0] $end
$var wire 1 * arb_ready $end
$var parameter 32 + AXI_ADDR_W $end
$var parameter 32 , AXI_ID_W $end
$var parameter 32 - BANKS_PER_GROUP $end
$var parameter 32 . BANK_GROUPS $end
$var parameter 3 / CMD_ACT $end
$var parameter 3 0 CMD_NOP $end
$var parameter 3 1 CMD_PRE $end
$var parameter 3 2 CMD_RD $end
$var parameter 3 3 CMD_REF $end
$var parameter 3 4 CMD_WR $end
$var parameter 32 5 COL_ADDR_W $end
$var parameter 32 6 ROW_ADDR_W $end
$var reg 34 7 addr_a [33:0] $end
$var reg 34 8 addr_b [33:0] $end
$var reg 34 9 arb_addr [33:0] $end
$var reg 1 : arb_is_write $end
$var reg 1 ; arb_valid $end
$var reg 1 < clk $end
$var reg 1 = ref_issue $end
$var reg 1 > ref_req $end
$var reg 1 ? rst_n $end
$var reg 1 @ tc_ok $end
$var integer 32 A fail_count [31:0] $end
$var integer 32 B pass_count [31:0] $end
$scope function make_addr $end
$var reg 2 C bank [1:0] $end
$var reg 2 D bg [1:0] $end
$var reg 10 E col [9:0] $end
$var reg 11 F row [10:0] $end
$upscope $end
$scope module dut $end
$var wire 34 G arb_addr [33:0] $end
$var wire 1 : arb_is_write $end
$var wire 1 * arb_ready $end
$var wire 1 ; arb_valid $end
$var wire 1 < clk $end
$var wire 1 H cmd_issue $end
$var wire 2 I dram_bank [1:0] $end
$var wire 2 J dram_bank_group [1:0] $end
$var wire 3 K dram_cmd [2:0] $end
$var wire 1 $ dram_valid $end
$var wire 1 = ref_issue $end
$var wire 1 > ref_req $end
$var wire 1 ? rst_n $end
$var wire 1 @ tc_ok $end
$var wire 3 L tc_cmd [2:0] $end
$var wire 2 M tc_bank_group [1:0] $end
$var wire 2 N tc_bank [1:0] $end
$var wire 4 O pend_bidx [3:0] $end
$var wire 11 P dram_row_addr [10:0] $end
$var wire 10 Q dram_col_addr [9:0] $end
$var wire 11 R dec_row_raw [10:0] $end
$var wire 11 S dec_row [10:0] $end
$var wire 10 T dec_col [9:0] $end
$var wire 4 U dec_bidx [3:0] $end
$var wire 2 V dec_bg [1:0] $end
$var wire 2 W dec_bank [1:0] $end
$var parameter 32 X AXI_ADDR_W $end
$var parameter 32 Y AXI_ID_W $end
$var parameter 32 Z BANKS_PER_GROUP $end
$var parameter 32 [ BANK_GROUPS $end
$var parameter 3 \ CMD_ACT $end
$var parameter 3 ] CMD_NOP $end
$var parameter 3 ^ CMD_PRE $end
$var parameter 3 _ CMD_RD $end
$var parameter 3 ` CMD_REF $end
$var parameter 3 a CMD_WR $end
$var parameter 32 b COL_ADDR_W $end
$var parameter 32 c ROW_ADDR_W $end
$var parameter 3 d S_ACT $end
$var parameter 3 e S_DATA $end
$var parameter 3 f S_IDLE $end
$var parameter 3 g S_PRE $end
$var parameter 32 h TOTAL_BANKS $end
$var reg 2 i pend_bank [1:0] $end
$var reg 2 j pend_bg [1:0] $end
$var reg 10 k pend_col [9:0] $end
$var reg 1 l pend_is_write $end
$var reg 11 m pend_row [10:0] $end
$var reg 16 n row_open [15:0] $end
$var reg 3 o state [2:0] $end
$var integer 32 p k [31:0] $end
$upscope $end
$scope task chk $end
$var reg 1 q cond $end
$var reg 240 r msg [239:0] $end
$var reg 32 s tid [31:0] $end
$upscope $end
$scope task clk_cycle $end
$upscope $end
$scope task send_req $end
$var reg 34 t addr [33:0] $end
$var reg 1 u is_wr $end
$upscope $end
$upscope $end
$enddefinitions $end
$comment Show the parameter values. $end
$dumpall
b10000 h
b1 g
b0 f
b11 e
b10 d
b1011 c
b1010 b
b11 a
b101 `
b10 _
b100 ^
b0 ]
b1 \
b10 [
b10 Z
b100 Y
b100010 X
b1011 6
b1010 5
b11 4
b101 3
b10 2
b100 1
b0 0
b1 /
b10 .
b10 -
b100 ,
b100010 +
$end
#0
$dumpvars
xu
bx t
bx s
bx r
xq
b10000 p
b0 o
b0 n
b0 m
0l
b0 k
b0 j
b0 i
b0 W
b0 V
b0 U
b0 T
b0 S
b0 R
b0 Q
b0 P
b0 O
b0 N
b0 M
b0 L
b0 K
b0 J
b0 I
0H
b0 G
bx F
bx E
bx D
bx C
b0 B
b0 A
1@
0?
0>
0=
0<
0;
0:
b0 9
bx 8
bx 7
1*
b0 )
b0 (
b0 '
b0 &
b0 %
0$
b0 #
b0 "
b0 !
$end
#5000
b10000 p
1<
#10000
0<
#15000
b10000 p
1<
#20000
0<
#25000
b10000 p
1<
#30000
0<
#35000
b10000 p
1<
#36000
b11 B
b111001001100101011100110110010101110100001110100010000001110100011000110101111101100011011011010110010000111101010011100100111101010000 r
b1 s
1q
#40000
0<
#45000
b10000 p
1<
#46000
1?
#50000
0<
#55000
1<
#56000
b101010100000000101010100000000 t
0u
b101010100000000101010100000000 7
b0 D
b0 C
b10101010 F
b1010101 E
#60000
b10101010 S
b10101010 R
b1010101 T
b101010100000000101010100000000 9
b101010100000000101010100000000 G
1;
0<
#65000
1$
1H
b1 '
b1 K
b1 !
b1 L
0*
b10101010 %
b10101010 P
b10 o
b1010101 k
b10101010 m
1<
#66000
b1001 B
b11011010110100101110011011100110011101000100000011001000111001001100001011011010101111101110010011011110111011101011111011000010110010001100100011100100010000001100011011011110111001001110010011001010110001101110100 r
b10 s
0;
#70000
0<
#75000
1$
1H
b10 '
b10 K
b10 !
b10 L
b0 %
b0 P
b1010101 &
b1010101 Q
b11 o
b1 n
1<
#76000
b1101 B
b11011010110100101110011011100110011101000100000011001000111001001100001011011010101111101100011011011110110110001011111011000010110010001100100011100100010000001100011011011110111001001110010011001010110001101110100 r
#80000
0<
#85000
0$
0H
b0 '
b0 K
b0 !
b0 L
1*
b0 &
b0 Q
b0 o
1<
#86000
b1111 B
b110110101101001011100110111001100111010001000000110010001110010011000010110110101011111011101100110000101101100011010010110010000111101001100000010000001101001011011100010000001001001010001000100110001000101 r
#90000
1;
0<
#95000
1$
1H
b10 '
b10 K
b10 !
b10 L
0*
b1010101 &
b1010101 Q
b11 o
1<
#96000
b10010 B
b110100001101001011101000011101000100000011001000111001001100001011011010101111101110110011000010110110001101001011001000011110100110001001000000110100101101101011011010110010101100100011010010110000101110100011001010110110001111001 r
b11 s
0;
#100000
0<
#105000
0$
0H
b0 '
b0 K
b0 !
b0 L
1*
b0 &
b0 Q
b0 o
1<
#106000
b101110110000000011001100000000 t
1u
b101110110000000011001100000000 8
b10111011 F
b110011 E
b10011 B
b110100001101001011101000011101000100000011000100110000101100011011010110010000001110100011011110010000001001001010001000100110001000101 r
#110000
b10111011 S
b10111011 R
b110011 T
b101110110000000011001100000000 9
b101110110000000011001100000000 G
1:
1;
0<
#115000
1$
1H
0*
b100 '
b100 K
b100 !
b100 L
b1 o
1l
b110011 k
b10111011 m
1<
#116000
b10110 B
b1100011011011110110111001100110011011000110100101100011011101000011101000100000011001000111001001100001011011010101111101100011011011010110010000111101010100000101001001000101 r
b100 s
0;
#120000
0<
#125000
b1 '
b1 K
b1 !
b1 L
b10111011 %
b10111011 P
b10 o
b0 n
1<
#126000
b11001 B
b11011100110011001101100011010010110001101110100001110100010000001101110011001010111011100100000011100100110111101110111001000000110000101100100011001000111001001100101011100110111001100100000011010010110111000100000010000010100001101010100 r
#130000
0<
#135000
1$
1H
b11 '
b11 K
b11 !
b11 L
b0 %
b0 P
b110011 &
b110011 Q
b11 o
b1 n
1<
#136000
b11100 B
b110001101101111011011100110011001101100011010010110001101110100001110100010000001100011011011110110110001011111011000010110010001100100011100100010000001100011011011110111001001110010011001010110001101110100 r
#140000
0<
#145000
0$
0H
b0 '
b0 K
b0 !
b0 L
1*
b0 &
b0 Q
b0 o
1<
#146000
b100000100000010000000000000 t
0u
b100000100000010000000000000 7
b1 D
b10000 F
b100000 E
0@
b11101 B
b1100011011011110110111001100110011011000110100101100011011101000011101000100000011000100110000101100011011010110010000001110100011011110010000001001001010001000100110001000101 r
#150000
b100 U
b1 V
b10000 S
b10000 R
b100000 T
b100000100000010000000000000 9
b100000100000010000000000000 G
0:
1;
0<
#155000
b1 '
b1 K
b1 !
b1 L
0*
b1 (
b1 J
b1 "
b1 M
b10000 %
b10000 P
b10 o
0l
b100000 k
b10000 m
b100 O
b1 j
1<
#156000
b11110 B
b111001101110100011000010110110001101100001110100010000001110100011000110101111101100011011011010110010000111101010000010100001101010100001000000111000001110010011011110111000001101111011100110110010101100100 r
b101 s
0;
#157000
b11111 B
b111001101110100011000010110110001101100001110100010000001100100011100100110000101101101010111110111011001100001011011000110100101100100001111010011000000100000001010000111010001100011010111110110111101101011001111010011000000101001 r
#160000
0<
#165000
1<
#170000
0<
#175000
1<
#176000
1$
1H
1@
b100001 B
b111001101110100011000010110110001101100001110100010000001110100011000110101111101100011011011010110010000100000011100110111010001101001011011000110110000100000010000010100001101010100 r
#177000
b100011 B
b111001101110100011000010110110001101100001000000111001001100101011011000110010101100001011100110110010101100100001110100010000001100011011011010110010000111101010000010100001101010100 r
#180000
0<
#185000
1$
1H
b10 '
b10 K
b10 !
b10 L
b0 %
b0 P
b100000 &
b100000 Q
b11 o
b10001 n
1<
#186000
b100100 B
b11100110111010001100001011011000110110000111010001000000101001001000100001000000110011001101111011011000110110001101111011101110111001100100000010000010100001101010100 r
#190000
0<
#195000
0$
0H
b0 '
b0 K
b0 !
b0 L
1*
b0 (
b0 J
b0 "
b0 M
b0 &
b0 Q
b0 o
1<
#196000
b110011001000000001000000000000 t
b110011001000000001000000000000 7
b10 D
b11001100 F
b10000 E
b100101 B
b1110011011101000110000101101100011011000011101000100000011000100110000101100011011010110010000001110100011011110010000001001001010001000100110001000101 r
#200000
b1000 U
b10 V
b11001100 S
b11001100 R
b10000 T
b110011001000000001000000000000 9
b110011001000000001000000000000 G
1;
0<
#205000
1$
1H
b1 '
b1 K
b1 !
b1 L
0*
b10 (
b10 J
b10 "
b10 M
b11001100 %
b11001100 P
b10 o
b10000 k
b11001100 m
b1000 O
b10 j
1<
#206000
0;
#210000
0<
#215000
1$
1H
b10 '
b10 K
b10 !
b10 L
b0 %
b0 P
b10000 &
b10000 Q
b11 o
b100010001 n
1<
#220000
0<
#225000
0$
0H
b0 '
b0 K
b0 !
b0 L
1*
b0 (
b0 J
b0 "
b0 M
b0 &
b0 Q
b0 o
1<
#226000
b100110 B
b1011010111001001100101011001100011101000100000011100100110111101110111001000000110111101110000011001010110111001100101011001000010110000100000011000100110000101100011011010110010000001110100011011110010000001001001010001000100110001000101 r
b110 s
#230000
1$
1H
b101 '
b101 K
b101 !
b101 L
0*
1=
0<
#235000
b0 n
1<
#236000
b101001 B
b11100100110010101100110010111110110100101110011011100110111010101100101001110100010000001110100011000110101111101100011011011010110010000111101010100100100010101000110 r
#240000
0$
0H
b0 '
b0 K
b0 !
b0 L
1*
0=
0<
#245000
1<
#246000
b110011000000000001000000000000 t
b110011000000000001000000000000 7
b0 D
b101011 B
b1110000011011110111001101110100001011010111001001100101011001100011101000100000011000010111001001100010010111110111001001100101011000010110010001111001001111010011000100100000001010000100100101000100010011000100010100101001 r
#250000
b0 U
b0 V
b110011000000000001000000000000 9
b110011000000000001000000000000 G
1;
0<
#255000
1$
1H
b1 '
b1 K
b1 !
b1 L
0*
b11001100 %
b11001100 P
b10 o
b0 O
b0 j
1<
#256000
b101100 B
b10101000010000001110010011001010111000101110101011010010111001001100101011001000010000001100001011001110110000101101001011011100010000000101000011100100110111101110111001000000110001101101100011001010110000101110010011001010110010000101001 r
0;
#260000
0<
#265000
1$
1H
b10 '
b10 K
b10 !
b10 L
b0 %
b0 P
b10000 &
b10000 Q
b11 o
b1 n
1<
#270000
0<
#275000
0$
0H
b0 '
b0 K
b0 !
b0 L
1*
b0 &
b0 Q
b0 o
1<
#280000
0*
1>
0<
#285000
1<
#286000
b101101 B
b1110010011001010110011001011111011100100110010101110001001110100010000001100001011100100110001001011111011100100110010101100001011001000111100100111101001100000010000001100010011011000110111101100011011010110110010101100100 r
b111 s
#290000
1*
0>
0<
#295000
1<
#296000
b101110 B
b111001001100101011001100101111101110010011001010111000100100000011100100110010101101100011001010110000101110011011001010110010000111010001000000110000101110010011000100101111101110010011001010110000101100100011110010011110100110001 r
#300000
0<
#305000
1<
#306000
b1000100011100000000000100000000 t
b1000100011100000000000100000000 7
b11 D
b100010001 F
b1 E
#310000
b1100 U
b11 V
b100010001 S
b100010001 R
b1 T
b1000100011100000000000100000000 9
b1000100011100000000000100000000 G
1;
0<
#315000
1$
1H
b1 '
b1 K
b1 !
b1 L
0*
b11 (
b11 J
b11 "
b11 M
b100010001 %
b100010001 P
b10 o
b1 k
b100010001 m
b1100 O
b11 j
1<
#316000
0;
#320000
0<
#325000
1$
1H
b10 '
b10 K
b10 !
b10 L
b0 %
b0 P
b1 &
b1 Q
b11 o
b1000000000001 n
1<
#330000
0<
#335000
0$
0H
b0 '
b0 K
b0 !
b0 L
1*
b0 (
b0 J
b0 "
b0 M
b0 &
b0 Q
b0 o
1<
#336000
b10001000101101000000001000000000 t
1u
b10001000101101000000001000000000 8
b1 C
b1000100010 F
b10 E
#340000
b1101 U
b1 W
b1000100010 S
b1000100010 R
b10 T
b10001000101101000000001000000000 9
b10001000101101000000001000000000 G
1:
1;
0<
#345000
1$
1H
b1 '
b1 K
b1 !
b1 L
0*
b11 (
b11 J
b11 "
b11 M
b1 )
b1 I
b1 #
b1 N
b1000100010 %
b1000100010 P
b10 o
1l
b10 k
b1000100010 m
b1101 O
b1 i
1<
#346000
0;
#350000
0<
#355000
1$
1H
b11 '
b11 K
b11 !
b11 L
b0 %
b0 P
b10 &
b10 Q
b11 o
b11000000000001 n
1<
#360000
0<
#365000
0$
0H
b0 '
b0 K
b0 !
b0 L
1*
b0 (
b0 J
b0 "
b0 M
b0 )
b0 I
b0 #
b0 N
b0 &
b0 Q
b0 o
1<
#366000
b1000100011100000000001100000000 t
0u
b1000100011100000000001100000000 7
b0 C
b100010001 F
b11 E
#370000
b1100 U
b0 W
b100010001 S
b100010001 R
b11 T
b1000100011100000000001100000000 9
b1000100011100000000001100000000 G
0:
1;
0<
#375000
1$
1H
b10 '
b10 K
b10 !
b10 L
0*
b11 (
b11 J
b11 "
b11 M
b11 &
b11 Q
b11 o
0l
b11 k
b100010001 m
b1100 O
b0 i
1<
#376000
b101111 B
b11011100110101100111010001000000110001001100001011011100110101100101000001100110010110000110000001010010010000001101000011010010111010000100000001011010011111000100000011001000110100101110010011001010110001101110100001000000101001001000100 r
b1000 s
0;
#380000
0<
#385000
0$
0H
b0 '
b0 K
b0 !
b0 L
1*
b0 (
b0 J
b0 "
b0 M
b0 &
b0 Q
b0 o
1<
#386000
b10001000101101000000010000000000 t
1u
b10001000101101000000010000000000 8
b1 C
b1000100010 F
b100 E
b110000 B
b11101000110100100101101011000100110000101101110011010110011101000100000011000100110000101100011011010110010000001110100011011110010000001001001010001000100110001000101001000000110000101100110011101000110010101110010001000000101001001000100 r
#390000
b1101 U
b1 W
b1000100010 S
b1000100010 R
b100 T
b10001000101101000000010000000000 9
b10001000101101000000010000000000 G
1:
1;
0<
#395000
1$
1H
b11 '
b11 K
b11 !
b11 L
0*
b11 (
b11 J
b11 "
b11 M
b1 )
b1 I
b1 #
b1 N
b100 &
b100 Q
b11 o
1l
b100 k
b1000100010 m
b1101 O
b1 i
1<
#396000
b110001 B
b11011100110101100111010001000000110001001100001011011100110101100101000001100110010110000110001001010010010000001101000011010010111010000100000001011010011111000100000011001000110100101110010011001010110001101110100001000000101011101010010 r
0;
#400000
0<
#405000
0$
0H
b0 '
b0 K
b0 !
b0 L
1*
b0 (
b0 J
b0 "
b0 M
b0 )
b0 I
b0 #
b0 N
b0 &
b0 Q
b0 o
1<
#406000
b110010 B
b11101000110100100101101011000100110000101101110011010110011101000100000011000100110000101100011011010110010000001110100011011110010000001001001010001000100110001000101001000000110000101100110011101000110010101110010001000000101011101010010 r
