results/phase-ddr4-timing/timing_ctrl.vcd
$date
	Thu Mar 12 10:58:10 2026
$end
$version
	Icarus Verilog
$end
$timescale
	1ps
$end
$scope module timing_ctrl_tb $end
$var wire 1 ! tc_ok $end
$var parameter 3 " CMD_ACT $end
$var parameter 3 # CMD_NOP $end
$var parameter 3 $ CMD_PRE $end
$var parameter 3 % CMD_RD $end
$var parameter 3 & CMD_WR $end
$var parameter 32 ' P_TCCD_L $end
$var parameter 32 ( P_TCCD_S $end
$var parameter 32 ) P_TFAW $end
$var parameter 32 * P_TRAS $end
$var parameter 32 + P_TRC $end
$var parameter 32 , P_TRCD $end
$var parameter 32 - P_TRP $end
$var parameter 32 . P_TRRD_L $end
$var parameter 32 / P_TRRD_S $end
$var parameter 32 0 P_TRTP $end
$var parameter 32 1 P_TWR $end
$var parameter 32 2 P_TWTR_L $end
$var parameter 32 3 P_TWTR_S $end
$var reg 1 4 clk $end
$var reg 1 5 rst_n $end
$var reg 2 6 tc_bank [1:0] $end
$var reg 2 7 tc_bank_group [1:0] $end
$var reg 3 8 tc_cmd [2:0] $end
$var integer 32 9 fail_count [31:0] $end
$var integer 32 : pass_count [31:0] $end
$var integer 32 ; wait_cnt [31:0] $end
$scope module dut $end
$var wire 1 4 clk $end
$var wire 1 < faw_ok $end
$var wire 1 = is_act $end
$var wire 1 > is_cas $end
$var wire 1 ? is_pre $end
$var wire 1 @ is_rd $end
$var wire 1 A is_wr $end
$var wire 1 B load_faw0 $end
$var wire 1 C load_faw1 $end
$var wire 1 D load_faw2 $end
$var wire 1 E load_faw3 $end
$var wire 1 F ok_act $end
$var wire 1 G ok_pre $end
$var wire 1 H ok_rd $end
$var wire 1 I ok_wr $end
$var wire 1 5 rst_n $end
$var wire 2 J tc_bank [1:0] $end
$var wire 2 K tc_bank_group [1:0] $end
$var wire 3 L tc_cmd [2:0] $end
$var wire 8 M tc_tccd_l [7:0] $end
$var wire 8 N tc_tras [7:0] $end
$var wire 8 O tc_trc [7:0] $end
$var wire 8 P tc_trcd [7:0] $end
$var wire 8 Q tc_trp [7:0] $end
$var wire 8 R tc_trrd_l [7:0] $end
$var wire 8 S tc_trtp [7:0] $end
$var wire 8 T tc_twr [7:0] $end
$var wire 8 U tc_twtr_l [7:0] $end
$var wire 1 ! tc_ok $end
$var wire 1 V faw2_free $end
$var wire 1 W faw1_free $end
$var wire 1 X faw0_free $end
$var wire 4 Y bidx [3:0] $end
$var parameter 32 Z BANKS_PER_GROUP $end
$var parameter 32 [ BANK_GROUPS $end
$var parameter 3 \ CMD_ACT $end
$var parameter 3 ] CMD_NOP $end
$var parameter 3 ^ CMD_PRE $end
$var parameter 3 _ CMD_RD $end
$var parameter 3 ` CMD_WR $end
$var parameter 32 a P_TCCD_L $end
$var parameter 32 b P_TCCD_S $end
$var parameter 32 c P_TFAW $end
$var parameter 32 d P_TRAS $end
$var parameter 32 e P_TRC $end
$var parameter 32 f P_TRCD $end
$var parameter 32 g P_TRP $end
$var parameter 32 h P_TRRD_L $end
$var parameter 32 i P_TRRD_S $end
$var parameter 32 j P_TRTP $end
$var parameter 32 k P_TWR $end
$var parameter 32 l P_TWTR_L $end
$var parameter 32 m P_TWTR_S $end
$var parameter 64 n TOTAL_BANKS $end
$var reg 8 o tccd_s_cnt [7:0] $end
$var reg 8 p trrd_s_cnt [7:0] $end
$var reg 8 q twtr_s_cnt [7:0] $end
$var integer 32 r i [31:0] $end
$upscope $end
$scope task chk $end
$var reg 1 s cond $end
$var reg 160 t msg [159:0] $end
$var reg 32 u tid [31:0] $end
$upscope $end
$scope task count_wait $end
$var integer 32 v cnt [31:0] $end
$upscope $end
$scope task do_nop $end
$upscope $end
$scope task drain $end
$var integer 32 w j [31:0] $end
$var integer 32 x n [31:0] $end
$upscope $end
$upscope $end
$enddefinitions $end
$comment Show the parameter values. $end
$dumpall
b10000 n
b101 m
b111 l
b110 k
b100 j
b11 i
b101 h
b101 g
b100 f
b1101 e
b1000 d
b1100 c
b11 b
b101 a
b11 `
b10 _
b100 ^
b0 ]
b1 \
b100 [
b100 Z
b101 3
b111 2
b110 1
b100 0
b11 /
b101 .
b101 -
b100 ,
b1101 +
b1000 *
b1100 )
b11 (
b101 '
b11 &
b10 %
b100 $
b0 #
b1 "
$end
#0
$dumpvars
bx x
bx w
bx v
bx u
bx t
xs
b10000 r
b0 q
b0 p
b0 o
b0 Y
1X
1W
1V
b0 U
b0 T
b0 S
b0 R
b0 Q
b0 P
b0 O
b0 N
b0 M
b0 L
b0 K
b0 J
1I
1H
1G
1F
0E
0D
0C
0B
0A
0@
0?
0>
0=
1<
bx ;
b0 :
b0 9
b0 8
b0 7
b0 6
05
04
1!
$end
#5000
b10000 r
14
#10000
04
#15000
b10000 r
14
#20000
04
#25000
b10000 r
14
#30000
04
#35000
b10000 r
14
#36000
b1 :
b100111101010000001000000110111101101011001000000111011101101000011010010110110001100101001000000110100101101110001000000111001001100101011100110110010101110100 t
b1 u
1s
#40000
1B
1=
b1 8
b1 L
04
#45000
b10000 r
14
#46000
15
b10 :
b111010101101110011101000110010101110010011100110010000000110000001000000110000101100110011101000110010101110010001000000111001001100101011100110110010101110100 t
#50000
0B
0=
b0 8
b0 L
04
#55000
b10000 r
14
#56000
b0 w
b10100 x
#60000
04
#65000
b10000 r
14
#66000
b1 w
#70000
04
#75000
b10000 r
14
#76000
b10 w
#80000
04
#85000
b10000 r
14
#86000
b11 w
#90000
04
#95000
b10000 r
14
#96000
b100 w
#100000
04
#105000
b10000 r
14
#106000
b101 w
#110000
04
#115000
b10000 r
14
#116000
b110 w
#120000
04
#125000
b10000 r
14
#126000
b111 w
#130000
04
#135000
b10000 r
14
#136000
b1000 w
#140000
04
#145000
b10000 r
14
#146000
b1001 w
#150000
04
#155000
b10000 r
14
#156000
b1010 w
#160000
04
#165000
b10000 r
14
#166000
b1011 w
#170000
04
#175000
b10000 r
14
#176000
b1100 w
#180000
04
#185000
b10000 r
14
#186000
b1101 w
#190000
04
#195000
b10000 r
14
#196000
b1110 w
#200000
04
#205000
b10000 r
14
#206000
b1111 w
#210000
04
#215000
b10000 r
14
#216000
b10000 w
#220000
04
#225000
b10000 r
14
#226000
b10001 w
#230000
04
#235000
b10000 r
14
#236000
b10010 w
#240000
04
#245000
b10000 r
14
#246000
b10011 w
#250000
04
#255000
b10000 r
14
#256000
b10100 w
#260000
1B
1=
b11 :
b101001001000100010111110101001100111010001000000111010001110010011010010110011101100111011001010111001000100000010000010100001101010100001000000110111101101011 t
b10 u
b1 8
b1 L
04
#265000
0C
0=
0!
0G
0B
0F
0H
0I
0X
b1100 O
b111 N
b11 P
b100 R
b10 p
b10000 r
14
#270000
1G
1H
1I
b0 v
b100 :
b10000001101001011011010110110101100101011001000110100101100001011101000110010101101100011110010010000001100010011011000110111101100011011010110110010101100100 t
b0 N
b0 O
b0 P
b100 Y
b0 R
b1 7
b1 K
04
#275000
b1 p
b10000 r
14
#276000
b1 v
#280000
04
#285000
1C
1=
1!
1F
b0 p
b10000 r
14
#286000
b110 :
b10000001100001011001100111010001100101011100100010000001110100010100100101001001000100010111110101001100100000011000110111100101100011011011000110010101110011 t
b10 ;
b10 v
#290000
04
#295000
0D
0=
0!
0G
0C
0F
0H
0I
0W
b1100 O
b111 N
b11 P
b100 R
b10 p
b10000 r
14
#296000
b0 w
#300000
1H
1I
1!
b100 N
b1001 O
b0 P
b0 Y
b1 R
b0 7
b0 K
b0 8
b0 L
04
#305000
b1000 O
b11 N
b0 R
b1 p
b10000 r
14
#306000
b1 w
#310000
04
#315000
b111 O
b10 N
b0 p
b10000 r
14
#316000
b10 w
#320000
04
#325000
b110 O
b1 N
b10000 r
14
#326000
b11 w
#330000
04
#335000
1G
b101 O
b0 N
b10000 r
14
#336000
b100 w
#340000
04
#345000
b100 O
b10000 r
14
#346000
b101 w
#350000
04
#355000
b11 O
b10000 r
14
#356000
b110 w
#360000
04
#365000
b10 O
b10000 r
14
#366000
b111 w
#370000
04
#375000
1X
b1 O
b10000 r
14
#376000
b1000 w
#380000
04
#385000
1F
b0 O
b10000 r
14
#386000
b1001 w
#390000
04
#395000
b10000 r
14
#396000
b1010 w
#400000
04
#405000
1W
b10000 r
14
#406000
b1011 w
#410000
04
#415000
b10000 r
14
#416000
b1100 w
#420000
04
#425000
b10000 r
14
#426000
b1101 w
#430000
04
#435000
b10000 r
14
#436000
b1110 w
#440000
04
#445000
b10000 r
14
#446000
b1111 w
#450000
04
#455000
b10000 r
14
#456000
b10000 w
#460000
04
#465000
b10000 r
14
#466000
b10001 w
#470000
04
#475000
b10000 r
14
#476000
b10010 w
#480000
04
#485000
b10000 r
14
#486000
b10011 w
#490000
04
#495000
b10000 r
14
#496000
b10100 w
#500000
1B
1=
b111 :
b101001001000100010111110100110000111010001000000111010001110010011010010110011101100111011001010111001000100000010000010100001101010100001000000110111101101011 t
b11 u
b1 8
b1 L
04
#505000
0C
0=
0!
0G
0B
0F
0H
0I
0X
b1100 O
b111 N
b11 P
b100 R
b10 p
b10000 r
14
#510000
1G
1H
1I
b0 v
b1000 :
b10000001101001011011010110110101100101011001000110100101100001011101000110010101101100011110010010000001100010011011000110111101100011011010110110010101100100 t
b0 N
b0 O
b0 P
b1 Y
b1 6
b1 J
04
#515000
b11 R
b1 p
b10000 r
14
#516000
b1 v
#520000
04
#525000
b10 R
b0 p
b10000 r
14
#526000
b10 v
#530000
04
#535000
b1 R
b10000 r
14
#536000
b11 v
#540000
04
#545000
1C
1=
1!
1F
b0 R
b10000 r
14
#546000
b1010 :
b10000001100001011001100111010001100101011100100010000001110100010100100101001001000100010111110100110000100000011000110111100101100011011011000110010101110011 t
b100 ;
b100 v
#550000
04
#555000
0D
0=
0!
0G
0C
0F
0H
0I
0W
b1100 O
b111 N
b11 P
b100 R
b10 p
b10000 r
14
#556000
b0 w
#560000
1H
1I
1!
b10 N
b111 O
b0 P
b0 Y
b0 6
b0 J
b0 8
b0 L
04
#565000
b110 O
b1 N
b11 R
b1 p
b10000 r
14
#566000
b1 w
#570000
04
#575000
1G
b101 O
b0 N
b10 R
b0 p
b10000 r
14
#576000
b10 w
#580000
04
#585000
b100 O
b1 R
b10000 r
14
#586000
b11 w
#590000
04
#595000
b11 O
b0 R
b10000 r
14
#596000
b100 w
#600000
04
#605000
b10 O
b10000 r
14
#606000
b101 w
#610000
04
#615000
1X
b1 O
b10000 r
14
#616000
b110 w
#620000
04
#625000
1F
b0 O
b10000 r
14
#626000
b111 w
#630000
04
#635000
b10000 r
14
#636000
b1000 w
#640000
04
#645000
b10000 r
14
#646000
b1001 w
#650000
04
#655000
b10000 r
14
#656000
b1010 w
#660000
04
#665000
1W
b10000 r
14
#666000
b1011 w
#670000
04
#675000
b10000 r
14
#676000
b1100 w
#680000
04
#685000
b10000 r
14
#686000
b1101 w
#690000
04
#695000
b10000 r
14
#696000
b1110 w
#700000
04
#705000
b10000 r
14
#706000
b1111 w
#710000
04
#715000
b10000 r
14
#716000
b10000 w
#720000
04
#725000
b10000 r
14
#726000
b10001 w
#730000
04
#735000
b10000 r
14
#736000
b10010 w
#740000
04
#745000
b10000 r
14
#746000
b10011 w
#750000
04
#755000
b10000 r
14
#756000
b10100 w
#760000
1B
1=
b1011 :
b1110100010001100100000101010111001110100010000001000001010000110101010000110001001000000110111101101011 t
b100 u
b1 8
b1 L
04
#765000
0C
0=
0!
0G
0B
0F
0H
0I
0X
b1100 O
b111 N
b11 P
b100 R
b10 p
b10000 r
14
#770000
1G
1H
1I
b0 v
b0 N
b0 O
b0 P
b100 Y
b0 R
b1 7
b1 K
04
#775000
b1 p
b10000 r
14
#776000
b1 v
#780000
04
#785000
1C
1=
1!
1F
b0 p
b10000 r
14
#786000
b10 ;
b10 v
#790000
04
#795000
0D
0=
0!
0G
0C
0F
0H
0I
0W
b1100 O
b111 N
b11 P
b100 R
b10 p
b10000 r
14
#800000
1G
1H
1I
b0 v
b0 N
b0 O
b0 P
b1000 Y
b0 R
b10 7
b10 K
04
#805000
b1 p
b10000 r
14
#806000
b1 v
#810000
04
#815000
1D
1=
1!
1F
b0 p
b10000 r
14
#816000
b10 v
#820000
04
#825000
0=
0E
0!
0G
0D
0F
0H
0I
0V
b1100 O
b111 N
b11 P
b100 R
b10 p
b10000 r
14
#830000
1G
1H
1I
b0 v
b0 N
b0 O
b0 P
b1100 Y
b0 R
b11 7
b11 K
04
#835000
b1 p
b10000 r
14
#836000
b1 v
#840000
04
#845000
1E
1=
1!
1F
b0 p
b10000 r
14
#846000
b10 v
#850000
04
#855000
0E
0=
0!
0G
0<
0F
0H
0I
b1100 O
b111 N
b11 P
b100 R
b10 p
b10000 r
14
#860000
1G
1H
1I
b0 v
b1100 :
b10100001100001011011000110110000100000001101000010000001110011011011000110111101110100011100110010000001100001011000110111010001101001011101100110010100101001 t
b1 6
b1 J
b0 N
b0 O
b0 P
b1 Y
b0 R
b0 7
b0 K
04
#865000
b1 p
b10000 r
14
#866000
b1 v
#870000
04
#875000
1B
1=
1!
1F
1<
1X
b0 p
b10000 r
14
#876000
b1101 :
b10000001101111011011000110010001100101011100110111010000100000011100110110110001101111011101000010000001100101011110000111000001101001011100100110010101110011 t
b10 v
#880000
04
#885000
0E
0<
0=
0!
0G
0B
0F
0H
0I
0X
b1100 O
b111 N
b11 P
b100 R
b10 p
b10000 r
14
#886000
b0 w
#890000
1G
1H
1I
1!
b0 N
b0 O
b0 P
b0 Y
b0 6
b0 J
b0 8
b0 L
04
#895000
b11 R
b1 p
b10000 r
14
#896000
b1 w
#900000
04
#905000
1<
1W
b10 R
b0 p
b10000 r
14
#906000
b10 w
#910000
04
#915000
b1 R
b10000 r
14
#916000
b11 w
#920000
04
#925000
1F
b0 R
b10000 r
14
#926000
b100 w
#930000
04
#935000
1V
b10000 r
14
#936000
b101 w
#940000
04
#945000
b10000 r
14
#946000
b110 w
#950000
04
#955000
b10000 r
14
#956000
b111 w
#960000
04
#965000
b10000 r
14
#966000
b1000 w
#970000
04
#975000
b10000 r
14
#976000
b1001 w
#980000
04
#985000
b10000 r
14
#986000
b1010 w
#990000
04
#995000
1X
b10000 r
14
#996000
b1011 w
#1000000
04
#1005000
b10000 r
14
#1006000
b1100 w
#1010000
04
#1015000
b10000 r
14
#1016000
b1101 w
#1020000
04
#1025000
b10000 r
14
#1026000
b1110 w
#1030000
04
#1035000
b10000 r
14
#1036000
b1111 w
#1040000
04
#1045000
b10000 r
14
#1046000
b10000 w
#1050000
04
#1055000
b10000 r
14
#1056000
b10001 w
#1060000
04
#1065000
b10000 r
14
#1066000
b10010 w
#1070000
04
#1075000
b10000 r
14
#1076000
b10011 w
#1080000
04
#1085000
b10000 r
14
#1086000
b10100 w
#1090000
1>
1A
b1110 :
b100001101000011010001000101111101010011001110100010000001110100011100100110100101100111011001110110010101110010001000000101011101010010001000000110111101101011 t
b101 u
b10 Y
b10 6
b10 J
b11 8
b11 L
04
#1095000
0>
0A
0!
0H
0I
0G
b101 T
b110 U
b100 M
b100 q
b10 o
b10000 r
14
#1100000
1G
b0 v
b1111 :
b10000001101001011011010110110101100101011001000110100101100001011101000110010101101100011110010010000001100010011011000110111101100011011010110110010101100100 t
b0 T
b1010 Y
b0 M
b0 U
b10 7
b10 K
04
#1105000
b11 q
b1 o
b10000 r
14
#1106000
b1 v
#1110000
04
#1115000
1>
1A
1!
1I
b10 q
b0 o
b10000 r
14
#1116000
b10001 :
b10000001100001011001100111010001100101011100100010000001110100010000110100001101000100010111110101001100100000011000110111100101100011011011000110010101110011 t
b10 v
#1120000
04
#1125000
0>
0A
0!
0I
0G
b101 T
b110 U
b100 M
b100 q
b10 o
b10000 r
14
#1126000
b0 w
#1130000
1!
1G
b0 6
b0 J
b0 T
b0 Y
b1 M
b11 U
b0 7
b0 K
b0 8
b0 L
04
#1135000
b10 U
b0 M
b11 q
b1 o
b10000 r
14
#1136000
b1 w
#1140000
04
#1145000
1I
b1 U
b10 q
b0 o
b10000 r
14
#1146000
b10 w
#1150000
04
#1155000
b0 U
b1 q
b10000 r
14
#1156000
b11 w
#1160000
04
#1165000
1H
b0 q
b10000 r
14
#1166000
b100 w
#1170000
04
#1175000
b10000 r
14
#1176000
b101 w
#1180000
04
#1185000
b10000 r
14
#1186000
b110 w
#1190000
04
#1195000
b10000 r
14
#1196000
b111 w
#1200000
04
#1205000
b10000 r
14
#1206000
b1000 w
#1210000
04
#1215000
b10000 r
14
#1216000
b1001 w
#1220000
04
#1225000
b10000 r
14
#1226000
b1010 w
#1230000
04
#1235000
b10000 r
14
#1236000
b1011 w
#1240000
04
#1245000
b10000 r
14
#1246000
b1100 w
#1250000
04
#1255000
b10000 r
14
#1256000
b1101 w
#1260000
04
#1265000
b10000 r
14
#1266000
b1110 w
#1270000
04
#1275000
b10000 r
14
#1276000
b1111 w
#1280000
04
#1285000
b10000 r
14
#1286000
b10000 w
#1290000
04
#1295000
b10000 r
14
#1296000
b10001 w
#1300000
04
#1305000
b10000 r
14
#1306000
b10010 w
#1310000
04
#1315000
b10000 r
14
#1316000
b10011 w
#1320000
04
#1325000
b10000 r
14
#1326000
b10100 w
#1330000
1>
1A
b10010 :
b100001101000011010001000101111101001100001110100010000001110100011100100110100101100111011001110110010101110010001000000101011101010010001000000110111101101011 t
b110 u
b10 Y
b10 6
b10 J
b11 8
b11 L
04
#1335000
0>
0A
0!
0H
0I
0G
b101 T
b110 U
b100 M
b100 q
b10 o
b10000 r
14
#1340000
1G
b0 v
b10011 :
b10000001101001011011010110110101100101011001000110100101100001011101000110010101101100011110010010000001100010011011000110111101100011011010110110010101100100 t
b0 T
b11 Y
b11 6
b11 J
04
#1345000
b101 U
b11 M
b11 q
b1 o
b10000 r
14
#1346000
b1 v
#1350000
04
#1355000
b100 U
b10 M
b10 q
b0 o
b10000 r
14
#1356000
b10 v
#1360000
04
#1365000
b11 U
b1 M
b1 q
b10000 r
14
#1366000
b11 v
#1370000
04
#1375000
1>
1A
1!
1I
b10 U
b0 M
b0 q
b10000 r
14
#1376000
b10101 :
b10000001100001011001100111010001100101011100100010000001110100010000110100001101000100010111110100110000100000011000110111100101100011011011000110010101110011 t
b100 ;
b100 v
#1380000
04
#1385000
0>
0A
0!
0I
0G
b101 T
b110 U
b100 M
b100 q
b10 o
b10000 r
14
#1386000
b0 w
#1390000
1!
1G
b0 T
b0 Y
b0 6
b0 J
b0 8
b0 L
04
#1395000
b101 U
b11 M
b11 q
b1 o
b10000 r
14
#1396000
b1 w
#1400000
04
#1405000
b100 U
b10 M
b10 q
b0 o
b10000 r
14
#1406000
b10 w
#1410000
04
#1415000
b11 U
b1 M
b1 q
b10000 r
14
#1416000
b11 w
#1420000
04
#1425000
1I
b10 U
b0 M
b0 q
b10000 r
14
#1426000
b100 w
#1430000
04
#1435000
b1 U
b10000 r
14
#1436000
b101 w
#1440000
04
#1445000
1H
b0 U
b10000 r
14
#1446000
b110 w
#1450000
04
#1455000
b10000 r
14
#1456000
b111 w
#1460000
04
#1465000
b10000 r
14
#1466000
b1000 w
#1470000
04
#1475000
b10000 r
14
#1476000
b1001 w
#1480000
04
#1485000
b10000 r
14
#1486000
b1010 w
#1490000
04
#1495000
b10000 r
14
#1496000
b1011 w
#1500000
04
#1505000
b10000 r
14
#1506000
b1100 w
#1510000
04
#1515000
b10000 r
14
#1516000
b1101 w
#1520000
04
#1525000
b10000 r
14
#1526000
b1110 w
#1530000
04
#1535000
b10000 r
14
#1536000
b1111 w
#1540000
04
#1545000
b10000 r
14
#1546000
b10000 w
#1550000
04
#1555000
b10000 r
14
#1556000
b10001 w
#1560000
04
#1565000
b10000 r
14
#1566000
b10010 w
#1570000
04
#1575000
b10000 r
14
#1576000
b10011 w
#1580000
04
#1585000
b10000 r
14
#1586000
b10100 w
#1590000
1>
1A
b10110 :
b101011101010100010100100101111101010011001110100010000001110100011100100110100101100111011001110110010101110010001000000101011101010010001000000110111101101011 t
b111 u
b10 Y
b10 6
b10 J
b11 8
b11 L
04
#1595000
0>
0A
0!
0H
0I
0G
b101 T
b110 U
b100 M
b100 q
b10 o
b10000 r
14
#1600000
1G
b0 v
b10111 :
b110010101101100011110010010000001100010011011000110111101100011011010110110010101100100001000000110000101100110011101000110010101110010001000000101011101010010 t
b0 T
b1010 Y
b0 M
b0 U
b10 7
b10 K
b10 8
b10 L
04
#1605000
b11 q
b1 o
b10000 r
14
#1606000
b1 v
#1610000
04
#1615000
1I
b10 q
b0 o
b10000 r
14
#1616000
b10 v
#1620000
04
#1625000
b1 q
b10000 r
14
#1626000
b11 v
#1630000
04
#1635000
1>
1@
1!
1H
b0 q
b10000 r
14
#1636000
b11001 :
b10000001100001011001100111010001100101011100100010000001110100010101110101010001010010010111110101001100100000011000110111100101100011011011000110010101110011 t
b100 v
#1640000
04
#1645000
0>
0@
0!
0H
0G
0I
b11 S
b100 M
b10 o
b10000 r
14
#1646000
b0 w
#1650000
1G
1!
b0 6
b0 J
b0 S
b0 Y
b0 M
b1 U
b0 7
b0 K
b0 8
b0 L
04
#1655000
b0 U
b1 o
b10000 r
14
#1656000
b1 w
#1660000
04
#1665000
1H
1I
b0 o
b10000 r
14
#1666000
b10 w
#1670000
04
#1675000
b10000 r
14
#1676000
b11 w
#1680000
04
#1685000
b10000 r
14
#1686000
b100 w
#1690000
04
#1695000
b10000 r
14
#1696000
b101 w
#1700000
04
#1705000
b10000 r
14
#1706000
b110 w
#1710000
04
#1715000
b10000 r
14
#1716000
b111 w
#1720000
04
#1725000
b10000 r
14
#1726000
b1000 w
#1730000
04
#1735000
b10000 r
14
#1736000
b1001 w
#1740000
04
#1745000
b10000 r
14
#1746000
b1010 w
#1750000
04
#1755000
b10000 r
14
#1756000
b1011 w
#1760000
04
#1765000
b10000 r
14
#1766000
b1100 w
#1770000
04
#1775000
b10000 r
14
#1776000
b1101 w
#1780000
04
#1785000
b10000 r
14
#1786000
b1110 w
#1790000
04
#1795000
b10000 r
14
#1796000
b1111 w
#1800000
04
#1805000
b10000 r
14
#1806000
b10000 w
#1810000
04
#1815000
b10000 r
14
#1816000
b10001 w
#1820000
04
#1825000
b10000 r
14
#1826000
b10010 w
#1830000
04
#1835000
b10000 r
14
#1836000
b10011 w
#1840000
04
#1845000
b10000 r
14
#1846000
b10100 w
#1850000
1>
1A
b11010 :
b101011101010100010100100101111101001100001110100010000001110100011100100110100101100111011001110110010101110010001000000101011101010010001000000110111101101011 t
b1000 u
b10 Y
b10 6
b10 J
b11 8
b11 L
04
#1855000
0>
0A
0!
0H
0I
0G
b101 T
b110 U
b100 M
b100 q
b10 o
b10000 r
14
#1860000
1G
b0 v
b11011 :
b110010101101100011110010010000001100010011011000110111101100011011010110110010101100100001000000110000101100110011101000110010101110010001000000101011101010010 t
b0 T
b11 Y
b11 6
b11 J
b10 8
b10 L
04
#1865000
b101 U
b11 M
b11 q
b1 o
b10000 r
14
#1866000
b1 v
#1870000
04
#1875000
b100 U
b10 M
b10 q
b0 o
b10000 r
14
#1876000
b10 v
#1880000
04
#1885000
b11 U
b1 M
b1 q
b10000 r
14
#1886000
b11 v
#1890000
04
#1895000
1I
b10 U
b0 M
b0 q
b10000 r
14
#1896000
b100 v
#1900000
04
#1905000
b1 U
b10000 r
14
#1906000
b101 v
#1910000
04
#1915000
1>
1@
1!
1H
b0 U
b10000 r
14
#1916000
b11101 :
b10000001100001011001100111010001100101011100100010000001110100010101110101010001010010010111110100110000100000011000110111100101100011011011000110010101110011 t
b110 ;
b110 v
#1920000
04
#1925000
0>
0@
0!
0H
0G
0I
b11 S
b100 M
b10 o
b10000 r
14
#1926000
b0 w
#1930000
1G
1!
b0 S
b0 Y
b0 6
b0 J
b0 8
b0 L
04
#1935000
b11 M
b1 o
b10000 r
14
#1936000
b1 w
#1940000
04
#1945000
b10 M
b0 o
b10000 r
14
#1946000
b10 w
#1950000
04
#1955000
b1 M
b10000 r
14
#1956000
b11 w
#1960000
04
#1965000
1H
1I
b0 M
b10000 r
14
#1966000
b100 w
#1970000
04
#1975000
b10000 r
14
#1976000
b101 w
#1980000
04
#1985000
b10000 r
14
#1986000
b110 w
#1990000
04
#1995000
b10000 r
14
#1996000
b111 w
#2000000
04
#2005000
b10000 r
14
#2006000
b1000 w
#2010000
04
#2015000
b10000 r
14
#2016000
b1001 w
#2020000
04
#2025000
b10000 r
14
#2026000
b1010 w
#2030000
04
#2035000
b10000 r
14
#2036000
b1011 w
#2040000
04
#2045000
b10000 r
14
#2046000
b1100 w
#2050000
04
#2055000
b10000 r
14
#2056000
b1101 w
#2060000
04
#2065000
b10000 r
14
#2066000
b1110 w
#2070000
04
#2075000
b10000 r
14
#2076000
b1111 w
#2080000
04
#2085000
b10000 r
14
#2086000
b10000 w
#2090000
04
#2095000
b10000 r
14
#2096000
b10001 w
#2100000
04
#2105000
b10000 r
14
#2106000
b10010 w
#2110000
04
#2115000
b10000 r
14
#2116000
b10011 w
#2120000
04
#2125000
b10000 r
14
#2126000
b10100 w
#2130000
1B
1=
b11110 :
b111010001010010010000110100010000111010001000000111010001110010011010010110011101100111011001010111001000100000010000010100001101010100001000000110111101101011 t
b1001 u
b1000 Y
b10 7
b10 K
b1 8
b1 L
04
#2135000
0C
0=
0!
0G
0B
0F
0H
0I
0X
b1100 O
b111 N
b11 P
b100 R
b10 p
b10000 r
14
#2140000
b0 v
b11111 :
b110110001111001001000000110001001101100011011110110001101101011011001010110010000100000011000010110011001110100011001010111001000100000010000010100001101010100 t
b10 8
b10 L
04
#2145000
b1011 O
b110 N
b10 P
b11 R
b1 p
b10000 r
14
#2146000
b1 v
#2150000
04
#2155000
b1010 O
b101 N
b1 P
b10 R
b0 p
b10000 r
14
#2156000
b10 v
#2160000
04
#2165000
1>
1@
1!
1H
1I
b1001 O
b100 N
b0 P
b1 R
b10000 r
14
#2166000
b100001 :
b110010101100100001000000110000101100110011101000110010101110010001000000111010001010010010000110100010000100000011000110111100101100011011011000110010101110011 t
b11 ;
b11 v
#2170000
04
#2175000
0>
0@
0!
0H
0I
b11 S
b1000 O
b11 N
b100 M
b0 R
b10 o
b10000 r
14
#2176000
b0 w
#2180000
1G
1!
1F
b0 N
b0 O
b0 S
b0 Y
b0 M
b0 7
b0 K
b0 8
b0 L
04
#2185000
b1 o
b10000 r
14
#2186000
b1 w
#2190000
04
#2195000
1H
1I
b0 o
b10000 r
14
#2196000
b10 w
#2200000
04
#2205000
b10000 r
14
#2206000
b11 w
#2210000
04
#2215000
b10000 r
14
#2216000
b100 w
#2220000
04
#2225000
b10000 r
14
#2226000
b101 w
#2230000
04
#2235000
b10000 r
14
#2236000
b110 w
#2240000
04
#2245000
1X
b10000 r
14
#2246000
b111 w
#2250000
04
#2255000
b10000 r
14
#2256000
b1000 w
#2260000
04
#2265000
b10000 r
14
#2266000
b1001 w
#2270000
04
#2275000
b10000 r
14
#2276000
b1010 w
#2280000
04
#2285000
b10000 r
14
#2286000
b1011 w
#2290000
04
#2295000
b10000 r
14
#2296000
b1100 w
#2300000
04
#2305000
b10000 r
14
#2306000
b1101 w
#2310000
04
#2315000
b10000 r
14
#2316000
b1110 w
#2320000
04
#2325000
b10000 r
14
#2326000
b1111 w
#2330000
04
#2335000
b10000 r
14
#2336000
b10000 w
#2340000
04
#2345000
b10000 r
14
#2346000
b10001 w
#2350000
04
#2355000
b10000 r
14
#2356000
b10010 w
#2360000
04
#2365000
b10000 r
14
#2366000
b10011 w
#2370000
04
#2375000
b10000 r
14
#2376000
b10100 w
#2380000
1B
1=
b100010 :
b111010001010010010100000011101000100000011001100110100101110010011100110111010000100000010000010100001101010100001000000110111101101011 t
b1010 u
b1 6
b1 J
b1001 Y
b10 7
b10 K
b1 8
b1 L
04
#2385000
0C
0=
0!
0G
0B
0F
0H
0I
0X
b1100 O
b111 N
b11 P
b100 R
b10 p
b10000 r
14
#2386000
b0 w
b1100 x
#2390000
1G
1H
1I
1!
b0 6
b0 J
b0 N
b0 O
b0 P
b0 Y
b0 R
b0 7
b0 K
b0 8
b0 L
04
#2395000
b1 p
b10000 r
14
#2396000
b1 w
#2400000
04
#2405000
1F
b0 p
b10000 r
14
#2406000
b10 w
#2410000
04
#2415000
b10000 r
14
#2416000
b11 w
#2420000
04
#2425000
b10000 r
14
#2426000
b100 w
#2430000
04
#2435000
b10000 r
14
#2436000
b101 w
#2440000
04
#2445000
b10000 r
14
#2446000
b110 w
#2450000
04
#2455000
b10000 r
14
#2456000
b111 w
#2460000
04
#2465000
b10000 r
14
#2466000
b1000 w
#2470000
04
#2475000
b10000 r
14
#2476000
b1001 w
#2480000
04
#2485000
b10000 r
14
#2486000
b1010 w
#2490000
04
#2495000
1X
b10000 r
14
#2496000
b1011 w
#2500000
04
#2505000
b10000 r
14
#2506000
b1100 w
#2510000
1?
b100011 :
b111010001110010011000110010111101100110011000010111011100100000011000010110110001101100001000000110010101111000011100000110100101110010011001010110010000101001 t
b1 6
b1 J
b1001 Y
b10 7
b10 K
b100 8
b100 L
04
#2515000
0F
b100 Q
b10000 r
14
#2520000
0B
0!
0=
0?
b1 8
b1 L
04
#2521000
b0 v
b100100 :
b110110001111001001000000110001001101100011011110110001101101011011001010110010000100000011000010110011001110100011001010111001000100000010100000101001001000101 t
#2525000
b11 Q
b10000 r
14
#2526000
b1 v
#2530000
04
#2535000
b10 Q
b10000 r
14
#2536000
b10 v
#2540000
04
#2545000
b1 Q
b10000 r
14
#2546000
b11 v
#2550000
04
#2555000
1B
1=
1!
1F
b0 Q
b10000 r
14
#2556000
b100110 :
b110101101100101011001000010000001100001011001100111010001100101011100100010000001110100010100100101000000100000011000110111100101100011011011000110010101110011 t
b100 ;
b100 v
#2560000
04
